<svg width="291" height="55" viewBox="0 0 291 55" fill="none" xmlns="http://www.w3.org/2000/svg">
<path d="M0 27.5C0 12.3122 12.3122 0 27.5 0H263.5C278.688 0 291 12.3122 291 27.5C291 42.6878 278.688 55 263.5 55H27.5C12.3122 55 0 42.6878 0 27.5Z" fill="#FED15C"/>
<path d="M22.5469 40.3281C20.2656 40.3281 18.3594 39.8281 16.8281 38.8281C15.3073 37.8281 14.1615 36.4583 13.3906 34.7188C12.6302 32.9792 12.25 31.0052 12.25 28.7969V28.4688C12.25 26.2396 12.651 24.2604 13.4531 22.5312C14.2552 20.7917 15.4062 19.4219 16.9062 18.4219C18.4062 17.4219 20.1979 16.9219 22.2812 16.9219C23.75 16.9219 25.0938 17.151 26.3125 17.6094C27.5312 18.0677 28.5417 18.651 29.3438 19.3594V24.2656H26.8906L26.5625 20.6719C26.2292 20.4115 25.8438 20.1927 25.4062 20.0156C24.9792 19.8385 24.5 19.7031 23.9688 19.6094C23.4479 19.5156 22.8802 19.4688 22.2656 19.4688C20.776 19.4688 19.5156 19.8542 18.4844 20.625C17.4531 21.3854 16.6719 22.4375 16.1406 23.7812C15.6094 25.125 15.3438 26.6771 15.3438 28.4375V28.7969C15.3438 30.7031 15.625 32.3333 16.1875 33.6875C16.7604 35.0312 17.5885 36.0573 18.6719 36.7656C19.7656 37.474 21.0938 37.8281 22.6562 37.8281C23.3854 37.8281 24.099 37.7396 24.7969 37.5625C25.4948 37.3854 26.0729 37.1562 26.5312 36.875L26.875 33.7031H29.2812V38.6406C28.4271 39.1719 27.4062 39.5885 26.2188 39.8906C25.0312 40.1823 23.8073 40.3281 22.5469 40.3281Z" fill="white"/>
<path d="M32.1562 40V38.0312L34.7031 37.5938V18.0469L32.1562 17.6094V15.625H37.7812V37.5938L40.3281 38.0312V40H32.1562Z" fill="white"/>
<path d="M49.9219 40.3281C48.3594 40.3281 47 39.974 45.8438 39.2656C44.6875 38.5469 43.7917 37.5521 43.1562 36.2812C42.5312 35.0104 42.2188 33.5417 42.2188 31.875V31.1875C42.2188 29.5833 42.5469 28.151 43.2031 26.8906C43.8698 25.6198 44.75 24.6198 45.8438 23.8906C46.9479 23.151 48.151 22.7812 49.4531 22.7812C50.974 22.7812 52.2448 23.0938 53.2656 23.7188C54.2969 24.3438 55.0729 25.224 55.5938 26.3594C56.1146 27.4844 56.375 28.8125 56.375 30.3438V32.2656H45.4062L45.3594 32.3438C45.3802 33.4271 45.5677 34.3906 45.9219 35.2344C46.2865 36.0677 46.8073 36.724 47.4844 37.2031C48.1615 37.6823 48.974 37.9219 49.9219 37.9219C50.9635 37.9219 51.875 37.776 52.6562 37.4844C53.4479 37.1823 54.1302 36.7708 54.7031 36.25L55.9062 38.25C55.3021 38.8333 54.5 39.3281 53.5 39.7344C52.5104 40.1302 51.3177 40.3281 49.9219 40.3281ZM45.5 29.8594H53.2969V29.4531C53.2969 28.6406 53.151 27.9167 52.8594 27.2812C52.5781 26.6354 52.151 26.1302 51.5781 25.7656C51.0156 25.3906 50.3073 25.2031 49.4531 25.2031C48.7656 25.2031 48.1406 25.4062 47.5781 25.8125C47.0156 26.2083 46.5521 26.75 46.1875 27.4375C45.8229 28.125 45.5833 28.9062 45.4688 29.7812L45.5 29.8594Z" fill="white"/>
<path d="M64.5 40.3281C62.7396 40.3281 61.401 39.901 60.4844 39.0469C59.5677 38.1823 59.1094 36.9688 59.1094 35.4062C59.1094 34.3333 59.401 33.401 59.9844 32.6094C60.5781 31.8073 61.4323 31.1875 62.5469 30.75C63.6615 30.3021 64.9948 30.0781 66.5469 30.0781H69.5625V28.4219C69.5625 27.401 69.25 26.6094 68.625 26.0469C68.0104 25.4844 67.1406 25.2031 66.0156 25.2031C65.3073 25.2031 64.6927 25.2917 64.1719 25.4688C63.651 25.6354 63.1771 25.8698 62.75 26.1719L62.4219 28.5312H60.0469V24.6562C60.8073 24.0417 61.6927 23.5781 62.7031 23.2656C63.7135 22.9427 64.8333 22.7812 66.0625 22.7812C68.1146 22.7812 69.724 23.2708 70.8906 24.25C72.0573 25.2292 72.6406 26.6302 72.6406 28.4531V36.5938C72.6406 36.8125 72.6406 37.026 72.6406 37.2344C72.651 37.4427 72.6667 37.651 72.6875 37.8594L74.3281 38.0312V40H69.9062C69.8125 39.5417 69.7396 39.1302 69.6875 38.7656C69.6354 38.401 69.599 38.0365 69.5781 37.6719C68.9844 38.4323 68.2396 39.0677 67.3438 39.5781C66.4583 40.0781 65.5104 40.3281 64.5 40.3281ZM64.9531 37.75C65.974 37.75 66.9062 37.5052 67.75 37.0156C68.5938 36.526 69.1979 35.9375 69.5625 35.25V32.1875H66.4375C65.0208 32.1875 63.9583 32.526 63.25 33.2031C62.5417 33.8802 62.1875 34.6354 62.1875 35.4688C62.1875 36.2083 62.4167 36.776 62.875 37.1719C63.3333 37.5573 64.026 37.75 64.9531 37.75Z" fill="white"/>
<path d="M76.6875 40V38.0312L79.2344 37.5938V25.5156L76.6875 25.0781V23.0938H81.9844L82.25 25.25L82.2812 25.5469C82.7604 24.6823 83.349 24.0052 84.0469 23.5156C84.7552 23.026 85.5625 22.7812 86.4688 22.7812C86.7917 22.7812 87.1198 22.8125 87.4531 22.875C87.7969 22.9271 88.0417 22.9792 88.1875 23.0312L87.7812 25.8906L85.6406 25.7656C84.8281 25.7135 84.1458 25.901 83.5938 26.3281C83.0417 26.7448 82.6146 27.3073 82.3125 28.0156V37.5938L84.8594 38.0312V40H76.6875Z" fill="white"/>
<path d="M104 40.2656C102.75 40.2656 101.755 39.901 101.016 39.1719C100.286 38.4323 99.9219 37.2552 99.9219 35.6406V25.375H97.25V23.0938H99.9219V19.0156H103V23.0938H106.672V25.375H103V35.6406C103 36.4531 103.161 37.0521 103.484 37.4375C103.807 37.8229 104.24 38.0156 104.781 38.0156C105.146 38.0156 105.552 37.9844 106 37.9219C106.448 37.849 106.797 37.7865 107.047 37.7344L107.469 39.75C107.021 39.8854 106.469 40.0052 105.812 40.1094C105.167 40.2135 104.562 40.2656 104 40.2656Z" fill="white"/>
<path d="M109.406 40V38.0312L111.953 37.5938V25.5156L109.406 25.0781V23.0938H114.703L114.969 25.25L115 25.5469C115.479 24.6823 116.068 24.0052 116.766 23.5156C117.474 23.026 118.281 22.7812 119.188 22.7812C119.51 22.7812 119.839 22.8125 120.172 22.875C120.516 22.9271 120.76 22.9792 120.906 23.0312L120.5 25.8906L118.359 25.7656C117.547 25.7135 116.865 25.901 116.312 26.3281C115.76 26.7448 115.333 27.3073 115.031 28.0156V37.5938L117.578 38.0312V40H109.406Z" fill="white"/>
<path d="M128.25 40.3281C126.49 40.3281 125.151 39.901 124.234 39.0469C123.318 38.1823 122.859 36.9688 122.859 35.4062C122.859 34.3333 123.151 33.401 123.734 32.6094C124.328 31.8073 125.182 31.1875 126.297 30.75C127.411 30.3021 128.745 30.0781 130.297 30.0781H133.312V28.4219C133.312 27.401 133 26.6094 132.375 26.0469C131.76 25.4844 130.891 25.2031 129.766 25.2031C129.057 25.2031 128.443 25.2917 127.922 25.4688C127.401 25.6354 126.927 25.8698 126.5 26.1719L126.172 28.5312H123.797V24.6562C124.557 24.0417 125.443 23.5781 126.453 23.2656C127.464 22.9427 128.583 22.7812 129.812 22.7812C131.865 22.7812 133.474 23.2708 134.641 24.25C135.807 25.2292 136.391 26.6302 136.391 28.4531V36.5938C136.391 36.8125 136.391 37.026 136.391 37.2344C136.401 37.4427 136.417 37.651 136.438 37.8594L138.078 38.0312V40H133.656C133.562 39.5417 133.49 39.1302 133.438 38.7656C133.385 38.401 133.349 38.0365 133.328 37.6719C132.734 38.4323 131.99 39.0677 131.094 39.5781C130.208 40.0781 129.26 40.3281 128.25 40.3281ZM128.703 37.75C129.724 37.75 130.656 37.5052 131.5 37.0156C132.344 36.526 132.948 35.9375 133.312 35.25V32.1875H130.188C128.771 32.1875 127.708 32.526 127 33.2031C126.292 33.8802 125.938 34.6354 125.938 35.4688C125.938 36.2083 126.167 36.776 126.625 37.1719C127.083 37.5573 127.776 37.75 128.703 37.75Z" fill="white"/>
<path d="M140.469 40V38.0312L143.016 37.5938V25.5156L140.469 25.0781V23.0938H145.766L145.984 25.6094C146.547 24.7135 147.25 24.0208 148.094 23.5312C148.948 23.0312 149.917 22.7812 151 22.7812C152.823 22.7812 154.234 23.3177 155.234 24.3906C156.234 25.4531 156.734 27.099 156.734 29.3281V37.5938L159.281 38.0312V40H151.109V38.0312L153.656 37.5938V29.3906C153.656 27.901 153.359 26.8438 152.766 26.2188C152.182 25.5938 151.286 25.2812 150.078 25.2812C149.193 25.2812 148.406 25.4948 147.719 25.9219C147.042 26.349 146.5 26.9323 146.094 27.6719V37.5938L148.641 38.0312V40H140.469Z" fill="white"/>
<path d="M168.312 40.3281C167.177 40.3281 166.115 40.2135 165.125 39.9844C164.135 39.7552 163.083 39.401 161.969 38.9219L161.938 34.9062H164.266L164.844 37.3281C165.427 37.5677 165.99 37.7448 166.531 37.8594C167.083 37.9635 167.677 38.0156 168.312 38.0156C169.562 38.0156 170.458 37.776 171 37.2969C171.542 36.8177 171.812 36.224 171.812 35.5156C171.812 34.849 171.536 34.2865 170.984 33.8281C170.443 33.3594 169.453 32.9635 168.016 32.6406C165.974 32.1719 164.469 31.5469 163.5 30.7656C162.542 29.974 162.062 28.9219 162.062 27.6094C162.062 26.6927 162.328 25.875 162.859 25.1562C163.391 24.4271 164.13 23.849 165.078 23.4219C166.026 22.9948 167.13 22.7812 168.391 22.7812C169.672 22.7812 170.766 22.9271 171.672 23.2188C172.589 23.5104 173.385 23.901 174.062 24.3906L174.219 28.25H171.906L171.406 26C171.042 25.7292 170.609 25.5208 170.109 25.375C169.609 25.2292 169.036 25.1562 168.391 25.1562C167.432 25.1562 166.651 25.3802 166.047 25.8281C165.453 26.276 165.156 26.8385 165.156 27.5156C165.156 27.9115 165.24 28.2552 165.406 28.5469C165.583 28.8385 165.917 29.1042 166.406 29.3438C166.896 29.5729 167.615 29.8021 168.562 30.0312C170.917 30.5833 172.557 31.2865 173.484 32.1406C174.422 32.9948 174.891 34.0469 174.891 35.2969C174.891 36.724 174.359 37.9219 173.297 38.8906C172.245 39.849 170.583 40.3281 168.312 40.3281Z" fill="white"/>
<path d="M177.281 40V38.0312L179.828 37.5938V18.0469L177.281 17.6094V15.625H182.906V37.5938L185.453 38.0312V40H177.281Z" fill="white"/>
<path d="M193.125 40.3281C191.365 40.3281 190.026 39.901 189.109 39.0469C188.193 38.1823 187.734 36.9688 187.734 35.4062C187.734 34.3333 188.026 33.401 188.609 32.6094C189.203 31.8073 190.057 31.1875 191.172 30.75C192.286 30.3021 193.62 30.0781 195.172 30.0781H198.188V28.4219C198.188 27.401 197.875 26.6094 197.25 26.0469C196.635 25.4844 195.766 25.2031 194.641 25.2031C193.932 25.2031 193.318 25.2917 192.797 25.4688C192.276 25.6354 191.802 25.8698 191.375 26.1719L191.047 28.5312H188.672V24.6562C189.432 24.0417 190.318 23.5781 191.328 23.2656C192.339 22.9427 193.458 22.7812 194.688 22.7812C196.74 22.7812 198.349 23.2708 199.516 24.25C200.682 25.2292 201.266 26.6302 201.266 28.4531V36.5938C201.266 36.8125 201.266 37.026 201.266 37.2344C201.276 37.4427 201.292 37.651 201.312 37.8594L202.953 38.0312V40H198.531C198.438 39.5417 198.365 39.1302 198.312 38.7656C198.26 38.401 198.224 38.0365 198.203 37.6719C197.609 38.4323 196.865 39.0677 195.969 39.5781C195.083 40.0781 194.135 40.3281 193.125 40.3281ZM193.578 37.75C194.599 37.75 195.531 37.5052 196.375 37.0156C197.219 36.526 197.823 35.9375 198.188 35.25V32.1875H195.062C193.646 32.1875 192.583 32.526 191.875 33.2031C191.167 33.8802 190.812 34.6354 190.812 35.4688C190.812 36.2083 191.042 36.776 191.5 37.1719C191.958 37.5573 192.651 37.75 193.578 37.75Z" fill="white"/>
<path d="M211.312 40.2656C210.062 40.2656 209.068 39.901 208.328 39.1719C207.599 38.4323 207.234 37.2552 207.234 35.6406V25.375H204.562V23.0938H207.234V19.0156H210.312V23.0938H213.984V25.375H210.312V35.6406C210.312 36.4531 210.474 37.0521 210.797 37.4375C211.12 37.8229 211.552 38.0156 212.094 38.0156C212.458 38.0156 212.865 37.9844 213.312 37.9219C213.76 37.849 214.109 37.7865 214.359 37.7344L214.781 39.75C214.333 39.8854 213.781 40.0052 213.125 40.1094C212.479 40.2135 211.875 40.2656 211.312 40.2656Z" fill="white"/>
<path d="M216.641 40V38.0312L219.188 37.5938V25.5156L216.641 25.0781V23.0938H222.266V37.5938L224.812 38.0312V40H216.641ZM219.031 18.9219V15.625H222.266V18.9219H219.031Z" fill="white"/>
<path d="M234.578 40.3281C233.016 40.3281 231.667 39.9635 230.531 39.2344C229.406 38.4948 228.536 37.4792 227.922 36.1875C227.307 34.8854 227 33.401 227 31.7344V31.3906C227 29.724 227.307 28.2448 227.922 26.9531C228.536 25.651 229.406 24.6302 230.531 23.8906C231.667 23.151 233.005 22.7812 234.547 22.7812C236.109 22.7812 237.453 23.151 238.578 23.8906C239.714 24.6302 240.589 25.6458 241.203 26.9375C241.818 28.2292 242.125 29.7135 242.125 31.3906V31.7344C242.125 33.4115 241.818 34.901 241.203 36.2031C240.589 37.4948 239.719 38.5052 238.594 39.2344C237.469 39.9635 236.13 40.3281 234.578 40.3281ZM234.578 37.9219C235.557 37.9219 236.375 37.6562 237.031 37.125C237.698 36.5833 238.198 35.849 238.531 34.9219C238.875 33.9844 239.047 32.9219 239.047 31.7344V31.3906C239.047 30.2031 238.875 29.1458 238.531 28.2188C238.198 27.2812 237.698 26.5469 237.031 26.0156C236.365 25.474 235.536 25.2031 234.547 25.2031C233.568 25.2031 232.745 25.474 232.078 26.0156C231.411 26.5469 230.911 27.2812 230.578 28.2188C230.245 29.1458 230.078 30.2031 230.078 31.3906V31.7344C230.078 32.9219 230.245 33.9844 230.578 34.9219C230.911 35.849 231.411 36.5833 232.078 37.125C232.755 37.6562 233.589 37.9219 234.578 37.9219Z" fill="white"/>
<path d="M244.5 40V38.0312L247.047 37.5938V25.5156L244.5 25.0781V23.0938H249.797L250.016 25.6094C250.578 24.7135 251.281 24.0208 252.125 23.5312C252.979 23.0312 253.948 22.7812 255.031 22.7812C256.854 22.7812 258.266 23.3177 259.266 24.3906C260.266 25.4531 260.766 27.099 260.766 29.3281V37.5938L263.312 38.0312V40H255.141V38.0312L257.688 37.5938V29.3906C257.688 27.901 257.391 26.8438 256.797 26.2188C256.214 25.5938 255.318 25.2812 254.109 25.2812C253.224 25.2812 252.438 25.4948 251.75 25.9219C251.073 26.349 250.531 26.9323 250.125 27.6719V37.5938L252.672 38.0312V40H244.5Z" fill="white"/>
<path d="M272.344 40.3281C271.208 40.3281 270.146 40.2135 269.156 39.9844C268.167 39.7552 267.115 39.401 266 38.9219L265.969 34.9062H268.297L268.875 37.3281C269.458 37.5677 270.021 37.7448 270.562 37.8594C271.115 37.9635 271.708 38.0156 272.344 38.0156C273.594 38.0156 274.49 37.776 275.031 37.2969C275.573 36.8177 275.844 36.224 275.844 35.5156C275.844 34.849 275.568 34.2865 275.016 33.8281C274.474 33.3594 273.484 32.9635 272.047 32.6406C270.005 32.1719 268.5 31.5469 267.531 30.7656C266.573 29.974 266.094 28.9219 266.094 27.6094C266.094 26.6927 266.359 25.875 266.891 25.1562C267.422 24.4271 268.161 23.849 269.109 23.4219C270.057 22.9948 271.161 22.7812 272.422 22.7812C273.703 22.7812 274.797 22.9271 275.703 23.2188C276.62 23.5104 277.417 23.901 278.094 24.3906L278.25 28.25H275.938L275.438 26C275.073 25.7292 274.641 25.5208 274.141 25.375C273.641 25.2292 273.068 25.1562 272.422 25.1562C271.464 25.1562 270.682 25.3802 270.078 25.8281C269.484 26.276 269.188 26.8385 269.188 27.5156C269.188 27.9115 269.271 28.2552 269.438 28.5469C269.615 28.8385 269.948 29.1042 270.438 29.3438C270.927 29.5729 271.646 29.8021 272.594 30.0312C274.948 30.5833 276.589 31.2865 277.516 32.1406C278.453 32.9948 278.922 34.0469 278.922 35.2969C278.922 36.724 278.391 37.9219 277.328 38.8906C276.276 39.849 274.615 40.3281 272.344 40.3281Z" fill="white"/>
</svg>
