<svg width="147" height="147" viewBox="0 0 147 147" fill="none" xmlns="http://www.w3.org/2000/svg">
<path d="M43.1572 88.2157C42.3293 88.7962 41.5579 89.4291 40.6333 89.8551C40.3631 89.9707 40.1522 89.6052 40.4021 89.4896C41.3267 89.0489 42.117 88.4307 42.9448 87.8354C43.1572 87.6567 43.3883 88.0423 43.1572 88.2157Z" fill="#845EC2"/>
<path d="M43.4462 86.5747C41.9235 86.9214 40.5567 87.6336 39.3417 88.6173C39.1307 88.7907 38.8216 88.4816 39.0339 88.3082C40.3053 87.2869 41.7312 86.5143 43.3118 86.1501C43.6007 86.0937 43.7163 86.5169 43.4462 86.5747Z" fill="#845EC2"/>
<path d="M54.8307 136.047C52.21 136.221 50.8418 135.412 48.8972 133.813C45.1599 130.73 41.3833 133.542 37.2024 133.102C36.9323 133.08 36.9323 132.639 37.2024 132.658C40.3042 133.005 43.9072 130.731 46.8935 132.041C49.8609 133.353 51.1511 135.839 54.8307 135.608C55.1008 135.585 55.1008 136.029 54.8307 136.047Z" fill="#845EC2"/>
<path d="M64.0236 86.5954C64.2937 86.4986 64.3891 86.9233 64.1392 87.0187C62.8476 87.4447 61.5575 87.4447 60.2659 87.0187C59.9958 86.9219 60.1113 86.4987 60.3815 86.5954C61.595 87.0012 62.81 87.0012 64.0236 86.5954Z" fill="#845EC2"/>
<path d="M64.1749 85.9211C63.0003 85.9211 61.8244 85.8244 60.6499 85.8042C60.3797 85.8042 60.3797 85.3809 60.6499 85.3809C61.8245 85.3809 63.0004 85.4776 64.1749 85.4776C64.4639 85.4776 64.4639 85.9211 64.1749 85.9211Z" fill="#845EC2"/>
<path d="M64.175 85.0163C62.9224 84.2826 61.4387 84.3807 60.0519 84.5904C59.7818 84.6481 59.6662 84.2047 59.9363 84.1671C61.4388 83.9359 63.0381 83.8392 64.4062 84.6293C64.6373 84.7852 64.4263 85.1507 64.175 85.0163Z" fill="#845EC2"/>
<path d="M81.8245 37.7214C79.7629 37.7214 77.7201 37.7402 75.6585 38.0103C75.3884 38.0493 75.3884 37.6058 75.6585 37.5669C77.7201 37.2967 79.763 37.2779 81.8245 37.2779C82.1135 37.2779 82.1135 37.7214 81.8245 37.7214Z" fill="#845EC2"/>
<path d="M81.8245 40.649C79.2818 40.9768 76.7 41.4767 74.1372 40.9379C73.867 40.8801 73.9826 40.4568 74.2527 40.5146C76.7766 41.0534 79.3181 40.5334 81.8245 40.2068C82.1134 40.1679 82.1135 40.61 81.8245 40.649Z" fill="#845EC2"/>
<path d="M82.5195 20.9611C79.5333 22.618 76.3924 22.4635 73.2516 21.2688C73.0016 21.1721 73.1172 20.7488 73.3672 20.8455C76.3924 21.9824 79.4176 22.1745 82.3069 20.5754C82.5582 20.441 82.7708 20.8254 82.5195 20.9611Z" fill="#845EC2"/>
<path d="M110.494 93.6649C108.913 97.058 109.165 100.428 111.92 103.088C112.129 103.28 111.822 103.589 111.612 103.394C108.701 100.582 108.434 97.0178 110.11 93.4552C110.244 93.1824 110.609 93.4136 110.494 93.6649Z" fill="#845EC2"/>
<path d="M48.8236 85.9211C48.5535 85.9977 48.4379 85.5731 48.708 85.4978C49.767 85.1686 50.8664 85.1498 51.9644 85.1498C52.2533 85.1498 52.2533 85.5932 51.9644 85.5932C50.904 85.5932 49.8436 85.612 48.8236 85.9211Z" fill="#845EC2"/>
<path d="M52.6184 87.0013C51.5393 87.7552 50.2289 87.6007 48.9967 87.5792C48.7077 87.5792 48.7077 87.1384 48.9967 87.1384C50.1525 87.1572 51.3862 87.3306 52.4062 86.6157C52.6374 86.4423 52.8496 86.828 52.6184 87.0013Z" fill="#845EC2"/>
<path d="M73.5021 0C32.908 0 0 32.9042 0 73.495C0 99.1938 13.1973 121.829 33.1963 134.95C33.0996 134.564 33.023 134.18 32.9464 133.791C32.1763 130.073 31.8874 126.22 31.1925 122.483C29.5744 113.855 28.4187 105.186 27.8206 96.42C27.4161 90.2749 27.1849 84.0314 27.666 77.9066C27.916 74.8817 28.6095 71.9534 30.1322 69.3142C32.0016 66.0783 38.7254 62.7834 41.7303 66.425C41.6725 71.4534 41.9803 75.5764 43.5607 80.4112C44.8321 84.2841 45.5256 88.3476 46.0846 92.4328H46.0658C46.9273 98.4354 46.4179 98.1774 44.1198 97.499C41.5193 95.7266 37.9163 90.6979 35.3559 86.2863C35.3949 86.1707 35.317 86.0363 35.2014 86.0162C34.3923 84.6294 33.6599 83.2802 32.9852 82.048C33.043 82.0265 33.1008 82.0265 33.1586 82.0265C33.4476 81.9875 33.332 81.5656 33.043 81.6031C32.9463 81.622 32.8697 81.6031 32.7729 81.622C31.6171 79.4853 30.7691 77.7491 30.3646 77.0005C30.2302 76.7505 29.8445 76.979 29.9789 77.2316C30.3444 77.9237 31.1535 79.5631 32.2138 81.6219C31.0003 81.5252 29.9977 80.8318 29.4776 79.6573C29.362 79.3858 28.9763 79.617 29.0919 79.8669C29.7087 81.2927 30.9989 82.0452 32.4436 82.0654C33.0981 83.3151 33.8306 84.6831 34.6396 86.1117C33.0215 86.4194 31.4222 85.8805 30.3242 84.5891C30.1321 84.3795 29.823 84.6859 30.0165 84.8969C31.23 86.3226 33.0605 86.9005 34.8521 86.5148C38.6097 93.0645 43.5606 100.173 46.8548 97.9412C47.2983 101.004 47.7404 103.971 49.9754 106.262C51.3435 107.652 55.1 108.594 56.7958 107.343C56.9302 107.244 57.0269 107.13 57.1425 107.035C55.7166 109.616 54.5608 112.274 54.0219 115.223C53.9641 115.493 54.3875 115.608 54.4453 115.338C55.0621 111.948 56.5068 108.944 58.2404 105.995C58.3372 105.84 58.2216 105.706 58.0859 105.687C58.1047 105.611 58.1437 105.514 58.1625 105.437C58.2015 105.456 58.2203 105.495 58.2781 105.514C63.5382 106.496 67.9114 103.933 68.6438 98.3663C69.125 94.6292 68.7016 90.8141 68.7204 87.0179C73.9025 86.6134 76.7357 80.4105 81.0511 78.1971C81.3212 78.0627 81.0914 77.6744 80.8387 77.8114C76.6028 79.9884 73.7104 86.1727 68.7393 86.5769C68.7393 85.8257 68.7783 85.0745 68.8361 84.3233C69.3562 78.3702 70.4931 72.533 70.5899 66.5609C70.6087 66.272 70.1665 66.272 70.1665 66.5609C70.0322 74.1505 68.3549 81.5874 68.105 89.177C67.9894 92.6251 68.7218 95.9001 68.0082 99.312C67.007 104.128 62.9215 105.937 58.3938 105.092C58.3548 105.07 58.2971 105.092 58.2594 105.111C58.4516 104.341 58.4718 103.493 58.414 102.606C58.1828 97.3461 56.7757 92.1254 56.429 86.8458C56.1011 82.2797 55.8121 77.8302 55.9089 73.2452C55.9667 70.047 56.1011 66.4066 54.5596 63.4973C54.6362 63.4583 54.694 63.4005 54.7142 63.3051C54.8875 58.2767 60.4164 55.6185 64.8098 56.4276C67.8727 56.9866 69.4531 60.4739 71.3412 62.5727C71.438 62.6883 71.688 62.6493 71.7068 62.4759C71.7068 62.4571 71.7256 62.4182 71.7256 62.3792C73.9995 62.4558 76.2921 61.7046 78.546 62.2058C80.5686 62.6291 82.0133 63.9971 84.1718 64.1329C84.4607 64.1517 84.4607 63.7096 84.1718 63.6894C81.918 63.5349 80.2222 62.1091 78.0636 61.6468C76.0598 61.2034 73.8828 61.9545 71.8023 61.9357C72.2257 59.5464 72.8815 57.254 72.9581 54.8081C73.0549 51.9767 72.1302 49.0283 71.9757 46.1971C71.6289 40.3798 70.7809 34.6001 70.3764 28.7625C69.8751 21.326 67.7947 5.35619 77.4091 2.65913C84.1531 0.771079 85.0747 17.2233 85.2884 20.865C85.5196 24.4101 85.2306 27.9737 85.2118 31.5373C85.154 38.5494 85.6929 45.5628 86.3098 52.5356C86.9065 59.2211 86.6162 65.8864 86.9844 72.5905C87.3312 78.7748 87.9857 84.901 88.198 91.0854C88.2746 93.6103 88.5837 97.4039 90.914 98.9856C94.5561 101.469 97.7159 98.5046 101.086 96.8476C107.307 93.8039 113.106 89.1424 120.392 90.298C126.537 91.2615 132.838 95.3643 135.747 100.894C139.408 107.887 124.132 106.791 120.796 106.731C118.522 106.693 116.174 106.519 113.937 106.866C110.874 107.327 108.366 110.043 106.076 111.932C100.855 116.21 95.6333 119.925 89.8534 123.434C84.3607 126.767 79.8344 131.41 74.4212 134.82C72.9953 135.726 71.7051 136.477 70.6838 137.402C70.665 137.383 70.6448 137.363 70.6072 137.383C65.1159 138.365 59.8946 135.667 58.2576 130.197C58.181 129.927 57.7564 130.043 57.8343 130.314C59.4914 135.842 64.6547 138.635 70.1838 137.885C69.2202 138.925 68.5456 140.197 68.3722 142.123C68.2177 143.723 68.3534 145.264 68.2956 146.805C70.0105 146.94 71.744 147 73.4979 147C114.092 147 147 114.096 147 73.505C147.004 32.9045 114.097 0 73.5021 0ZM55.6426 81.9543C56.0283 86.3298 56.1815 90.6809 56.7218 95.0347C57.0685 97.8473 57.8964 100.605 58.0321 103.433C58.0711 104.513 57.8587 105.34 57.4354 105.938C56.0135 108.776 52.0098 107.028 50.7695 106.324C48.8813 105.207 48.2066 102.741 47.7645 100.775C47.5145 99.7541 47.3411 98.714 47.1866 97.6739C47.2444 97.6161 46.782 94.8251 46.6275 93.6276C46.7041 93.5309 46.6853 93.4327 46.6087 93.3562C46.4931 92.433 46.3587 91.5071 46.223 90.5839C45.6262 86.6346 44.7971 82.7817 43.5647 78.9841C42.1777 74.8037 42.1199 70.7777 42.1576 66.4235C43.0056 65.6911 43.4289 64.7088 43.949 63.7265C46.223 59.3537 50.8272 61.7807 54.0447 63.322C54.0447 63.361 54.0259 63.3986 54.0447 63.4376C57.0094 68.6033 55.1023 76.2124 55.6426 81.9543Z" fill="#845EC2"/>
</svg>
