<svg width="149" height="149" viewBox="0 0 149 149" fill="none" xmlns="http://www.w3.org/2000/svg">
<path d="M52.9726 66.157C51.6124 67.312 50.6263 68.8761 48.9869 69.696C48.7453 69.8259 48.54 69.4544 48.7817 69.3232C50.3835 68.5411 51.3514 66.9951 52.6739 65.8597C52.8792 65.6739 53.1766 65.9712 52.9726 66.157Z" fill="#845EC2"/>
<path d="M65.3747 32.7824C64.034 33.658 62.562 33.7697 61.0162 33.975C60.7369 34.0126 60.7369 33.5839 61.0162 33.5462C62.4881 33.3605 63.8847 33.2487 65.1695 32.4108C65.3943 32.2614 65.5982 32.6343 65.3747 32.7824Z" fill="#845EC2"/>
<path d="M66.8647 53.9413C66.3243 54.2764 65.7474 54.4999 65.1134 54.6116C64.8523 54.6675 64.7406 54.2388 65.0017 54.2024C65.598 54.0906 66.1372 53.8854 66.6594 53.5879C66.8842 53.4385 67.1077 53.8113 66.8647 53.9413Z" fill="#845EC2"/>
<path d="M67.6097 51.8526C65.3933 51.7409 64.0707 53.9391 62.0219 54.4977C61.7608 54.5718 61.6491 54.1625 61.9102 54.0885C64.0148 53.5116 65.2816 51.3135 67.6097 51.4252C67.889 51.4434 67.889 51.8721 67.6097 51.8526Z" fill="#845EC2"/>
<path d="M70.42 133.468C67.645 132.686 65.0195 132.128 62.8953 129.985C60.9206 127.974 59.8033 125.497 58.4809 123.039C58.351 122.797 58.7225 122.593 58.8538 122.836C60.1204 125.164 61.1818 127.865 63.193 129.69C65.447 131.701 67.7374 132.279 70.5305 133.063C70.8111 133.113 70.6994 133.542 70.42 133.468Z" fill="#845EC2"/>
<path d="M76.1206 142.295C75.8594 144.528 75.5801 147.063 74.3511 149H73.886C73.886 148.962 73.9042 148.926 73.9237 148.888C75.1527 147.025 75.4515 144.474 75.6931 142.295C75.7295 142.034 76.1582 142.034 76.1206 142.295Z" fill="#845EC2"/>
<path d="M81.2424 117.132C80.7214 114.245 78.6908 111.861 78.3179 108.939C77.9659 106.106 77.5748 103.128 77.5008 100.26C77.5008 99.9986 77.9269 99.9986 77.9269 100.26C77.9659 101.768 78.4115 103.146 78.4673 104.636C78.5414 106.371 78.4297 108.325 78.9883 110.001C79.7886 112.403 81.2034 114.51 81.6516 117.024C81.6893 117.299 81.2788 117.411 81.2424 117.132Z" fill="#845EC2"/>
<path d="M83.2545 48.876C83.5325 48.876 83.5325 49.3048 83.2545 49.3048H80.9082C80.6458 49.3048 80.6458 48.876 80.9082 48.876H83.2545Z" fill="#845EC2"/>
<path d="M84.5383 47.3827C84.8007 47.3827 84.8007 47.8115 84.5383 47.8115C82.6012 47.7556 80.7202 48.3701 78.7829 48.1285C78.5218 48.0908 78.5049 47.6634 78.7829 47.6997C80.7199 47.9414 82.601 47.3269 84.5383 47.3827Z" fill="#845EC2"/>
<path d="M84.9108 80.7607C85.1161 80.5723 85.4161 80.8724 85.2083 81.0569C81.464 84.2047 79.0062 88.4881 75.1878 91.6191C71.6488 94.4876 67.3475 96.9078 63.4539 99.2725C63.2304 99.4219 63.0069 99.049 63.2486 98.9204C67.4761 96.3299 72.3558 93.6679 76.0245 90.3694C79.3049 87.4281 81.5394 83.5917 84.9108 80.7607Z" fill="#845EC2"/>
<path d="M83.8698 112.16C83.7399 116.407 84.6129 120.429 85.8068 124.471C85.8809 124.732 85.4704 124.844 85.395 124.582C84.3518 121.046 83.2904 117.263 83.3839 113.538C83.5138 109.347 85.4703 105.399 85.1741 101.227C85.1533 100.949 85.5834 100.949 85.6002 101.227C85.8808 105.064 83.9633 108.379 83.8698 112.16Z" fill="#845EC2"/>
<path d="M86.1247 134.529C84.1487 134.641 82.8092 136.539 81.1319 137.36C79.2326 138.328 77.2044 138.888 75.3792 140.042C75.1558 140.188 74.9323 139.818 75.1739 139.669C77.2617 138.325 79.8484 137.843 81.8439 136.409C83.1457 135.478 84.4683 134.193 86.1273 134.099C86.404 134.082 86.404 134.511 86.1247 134.529Z" fill="#845EC2"/>
<path d="M80.7601 29.9155C80.4977 29.8414 80.6107 29.4309 80.8718 29.5063C82.9206 30.1948 84.7458 30.2143 86.8128 29.618C87.074 29.5439 87.1831 29.9532 86.9246 30.0272C84.7822 30.6599 82.883 30.6417 80.7601 29.9155Z" fill="#845EC2"/>
<path d="M77.1815 135.703C79.2121 135.815 80.515 134.083 82.1157 133.187C83.7176 132.275 85.3558 132.181 87.1251 131.883C87.4032 131.828 87.5162 132.236 87.2369 132.294C84.8906 132.685 83.0094 133.021 81.0528 134.455C79.8796 135.311 78.687 136.222 77.1811 136.129C76.9213 136.113 76.9213 135.685 77.1811 135.703L77.1815 135.703Z" fill="#845EC2"/>
<path d="M106.609 85.1541C103.013 86.0103 99.3074 83.8134 97.425 80.7956C97.2964 80.554 97.6484 80.3487 97.7978 80.5722C99.5673 83.4212 103.087 85.5453 106.496 84.7438C106.776 84.6697 106.888 85.0801 106.609 85.1541Z" fill="#845EC2"/>
<path d="M149 74.5015C149 112.812 120.057 144.38 82.8454 148.534C82.974 148.311 83.0871 148.069 83.1975 147.826C85.1164 143.673 86.196 138.905 88.7294 135.051C91.989 130.116 96.8688 126.446 100.018 121.473C103.91 115.253 105.734 108.343 106.052 101.061C106.33 94.8054 107.596 89.6829 109.738 83.7966C109.777 83.703 109.851 83.629 109.943 83.6472H109.998C110.613 80.8137 111.059 77.9114 112.123 75.2105C112.961 73.0318 113.893 70.9076 114.433 68.5991C114.452 68.5991 114.452 68.5809 114.471 68.5809C114.397 67.9288 114.341 67.2766 114.285 66.5504C114.006 63.4402 112.253 59.8272 108.009 61.4472C106.016 62.2111 104.787 63.5518 103.09 64.6873C102.962 64.7808 102.829 64.8549 102.699 64.9289V64.9471C99.8867 69.5474 97.4285 74.2777 95.9202 79.4743C95.9021 79.5133 95.8644 79.5133 95.8462 79.5484C95.8462 79.5484 95.8644 79.5666 95.8644 79.5874C95.6786 83.2913 97.2428 89.3646 94.6354 92.5295C94.6744 92.5503 94.7302 92.5853 94.7484 92.6594C94.7861 92.8088 94.8419 92.9764 94.8783 93.1245C95.5656 94.056 96.1801 95.0615 96.853 95.993C97.8027 97.3337 99.0135 99.0655 100.765 99.3084C101.044 99.3461 100.914 99.754 100.653 99.7177C98.1575 99.3825 96.6492 96.6452 95.1968 94.4093C95.5671 95.8995 95.8853 97.4636 96.6129 98.7861C97.4885 100.426 98.7175 101.785 99.9089 103.2C100.078 103.403 99.7802 103.721 99.5919 103.498C98.2342 101.878 96.8377 100.332 95.9594 98.3769C95.2513 96.7919 94.9551 95.0042 94.49 93.3479C94.3185 93.1258 94.1496 92.9023 93.9821 92.7165C92.0073 91.5967 90.816 90.052 90.5185 88.1721C89.4012 89.4206 87.7812 89.7181 86.1793 90.2586C85.9181 90.3521 85.809 89.9416 86.0675 89.8493C87.6876 89.2907 89.4193 89.0464 90.4627 87.5758C90.4237 86.7587 90.5367 85.8622 90.8329 84.9126C91.3383 83.3484 92.1931 81.5232 93.5534 80.3695C93.5144 80.3695 93.4585 80.3487 93.4234 80.3136C91.8593 78.5442 91.0953 76.2538 90.3873 74.0375C90.3133 73.7763 90.7225 73.6646 90.7966 73.9257C91.4851 76.068 92.2126 78.2842 93.721 80.016C93.7755 80.0718 93.7755 80.1277 93.7587 80.2017C94.2796 79.7925 94.8577 79.4937 95.5099 79.3261C96.9819 74.353 99.2891 69.8086 101.935 65.3952C97.2404 68.0026 90.3133 68.916 85.2463 68.3755C85.1528 68.3573 85.0605 68.3196 85.0437 68.2261C85.0437 68.2079 85.0437 68.1884 85.0255 68.1702C83.6289 67.6116 81.8412 67.6116 80.3876 67.5934C80.1083 67.5934 80.1083 67.1647 80.3876 67.1841C81.8037 67.1841 83.5159 67.2023 84.9307 67.6687C83.0144 59.3242 86.1415 49.9381 87.2588 41.6687C88.0227 36.081 88.2293 30.4571 88.2462 24.8318C88.2462 20.6405 88.0045 15.6495 85.6011 11.9987C82.6403 7.47261 78.8027 12.3898 78.2257 15.7233C77.8346 17.9215 77.6852 20.1001 77.593 22.3347C77.3306 27.0092 76.9603 31.7029 76.3445 36.3408C75.73 40.9786 73.7747 45.2061 72.9731 49.7505C72.0792 54.7419 72.3209 59.7892 72.3767 64.8361C72.8055 66.0846 73.6252 66.8667 75.0023 67.0707C75.2817 67.1083 75.1699 67.5176 74.8906 67.4799C73.4382 67.2746 72.5066 66.4185 72.0221 65.096C72.0039 65.0778 71.9662 65.0778 71.9662 65.0401C68.4651 56.2486 69.3588 46.0426 67.757 36.8238C67.0308 32.6326 66.0616 28.4989 65.373 24.3273C65.0937 22.6878 64.8703 20.938 64.2557 19.3918C63.2502 16.8961 59.7855 15.7035 58.2951 18.4421C57.8859 19.1683 57.5312 19.9504 57.2519 20.752C56.0034 24.7197 57.2701 27.8856 57.6053 31.8895C58.0145 36.9368 58.4432 41.9841 58.6849 47.0506C58.9084 52.3031 59.4852 57.3683 60.3985 62.5274C60.9389 65.5817 61.404 68.6555 60.4543 71.6538C61.4599 73.2738 62.9124 74.7639 64.626 75.6019C64.6442 75.62 64.6442 75.62 64.6442 75.62C66.1343 73.3855 68.2391 71.6719 69.8967 69.5853C70.0825 69.3619 70.3813 69.6594 70.2137 69.8828C69.0029 71.3912 67.5504 72.6396 66.3214 74.092C65.0547 75.5821 64.4402 77.2022 63.4347 78.8416C62.1121 81.0398 60.3985 82.6596 58.238 84.0565C58.0146 84.2241 57.8093 83.8512 58.0328 83.7044C59.6346 82.643 61.217 81.4309 62.3161 79.8096C63.1359 78.6013 63.6568 77.2203 64.4208 75.9732C62.5214 75.0417 60.9196 73.3476 59.8763 71.5406L59.8581 71.5224C56.375 66.6051 52.1295 62.9364 47.92 58.7269C47.3795 58.1865 46.8768 57.5915 46.3922 57.0134C45.6841 58.5775 44.1199 59.3791 42.444 59.6026C42.1829 59.6584 42.053 59.2297 42.3323 59.1933C43.9342 58.9699 45.4983 58.2436 46.0945 56.6418C44.0639 54.0721 42.3503 51.2034 39.8545 49.0988C36.4272 46.2121 33.5783 48.7078 34.8255 52.6195C35.3465 54.2214 36.0363 55.7479 36.8925 57.2015C38.4008 59.7531 40.1326 62.1371 41.8839 64.539C44.6212 68.2832 47.2286 72.343 48.9617 76.6639C51.0845 81.9164 51.6431 87.4845 53.1529 92.9216C54.6054 98.0985 54.9964 102.476 55.1835 107.822C55.3693 113.504 55.8357 118.977 55.3329 124.68C54.6807 129.949 50.5833 138.275 50.4532 145.036C21.1039 135.012 0 107.221 0 74.4985C0 33.358 33.3583 0 74.4991 0C115.64 0 148.998 33.358 148.998 74.4985L149 74.5015Z" fill="#845EC2"/>
</svg>
