<svg width="149" height="149" viewBox="0 0 149 149" fill="none" xmlns="http://www.w3.org/2000/svg">
<path d="M56.2477 131.829C54.6835 136.411 52.541 140.73 50.1194 144.904C49.97 144.866 49.8401 144.81 49.7101 144.775C52.1318 140.603 54.2547 136.299 55.8384 131.717C55.9307 131.456 56.3399 131.569 56.2477 131.829Z" fill="#845EC2"/>
<path d="M59.2078 135.068C58.4997 136.021 57.9034 137.044 57.2889 138.05C57.159 138.292 56.7861 138.088 56.916 137.845C57.5305 136.821 58.1268 135.814 58.8349 134.864C59.0025 134.64 59.3753 134.863 59.2078 135.068Z" fill="#845EC2"/>
<path d="M46.546 107.021C46.2667 107.021 46.2667 106.595 46.546 106.595C54.1071 106.556 59.8067 100.859 65.1152 96.1626C65.3205 95.9768 65.618 96.2756 65.4127 96.4601C60.0121 101.228 54.2192 106.965 46.546 107.021Z" fill="#845EC2"/>
<path d="M66.9205 128.865C60.7001 126.873 54.4976 124.861 48.4631 122.327C48.2214 122.233 48.3332 121.824 48.5748 121.918C54.6097 124.451 60.8118 126.462 67.0323 128.455C67.2934 128.53 67.1817 128.94 66.9205 128.865Z" fill="#845EC2"/>
<path d="M54.7943 118.455C50.9203 118.01 46.9159 116.93 44.4022 113.762C44.2346 113.556 44.5321 113.256 44.6997 113.464C48.2764 117.953 54.8124 118.176 60.0846 118.456C65.2255 118.735 69.3596 120.096 73.8858 122.518C74.1275 122.647 73.9235 123.021 73.6806 122.891C70.2352 121.048 66.4909 119.145 62.5048 118.996C59.9338 118.903 57.3642 118.753 54.7943 118.455Z" fill="#845EC2"/>
<path d="M66.7709 105.9C68.5027 99.5095 71.2971 93.6802 75.3011 88.3924C75.4687 88.1689 75.8416 88.3924 75.674 88.6158C71.6883 93.8488 68.9131 99.6601 67.1813 106.012C67.106 106.273 66.6955 106.161 66.7709 105.9Z" fill="#845EC2"/>
<path d="M64.5159 56.9564C68.3523 58.9116 71.9094 58.8753 76.0448 58.353C76.3241 58.3153 76.3241 58.744 76.0448 58.7817C71.7976 59.3027 68.2043 59.3027 64.3107 57.3292C64.069 57.1993 64.2743 56.8447 64.5159 56.9564Z" fill="#845EC2"/>
<path d="M71.5768 43.0408C73.849 43.5436 75.972 43.2266 77.9286 41.9235C78.1521 41.7741 78.3755 42.147 78.1521 42.2964C76.1032 43.6748 73.849 43.9918 71.4653 43.4514C71.186 43.3773 71.2975 42.985 71.5768 43.0408Z" fill="#845EC2"/>
<path d="M71.6134 22.3505C71.464 22.127 71.8368 21.9035 71.9862 22.1452C73.7375 25.0502 78.0211 25.7219 80.444 23.2248C80.6298 23.039 80.9468 23.3365 80.7402 23.5223C78.1328 26.2064 73.5128 25.4984 71.6134 22.3505Z" fill="#845EC2"/>
<path d="M113.37 103.891C111.731 103.871 110.186 103.426 108.863 102.439C108.64 102.289 108.863 101.918 109.066 102.086C110.351 103.017 111.785 103.446 113.37 103.482C113.649 103.482 113.649 103.911 113.37 103.891Z" fill="#845EC2"/>
<path d="M120.71 95.6398C119.949 96.0868 119.092 96.3687 118.254 96.6454C117.991 96.7402 117.881 96.3284 118.141 96.2361C118.944 95.975 119.761 95.6957 120.508 95.2682C120.729 95.137 120.952 95.5099 120.71 95.6398Z" fill="#845EC2"/>
<path d="M120.99 93.2186C119.947 93.7032 119.034 94.3917 117.973 94.8036C117.712 94.9153 117.6 94.5061 117.861 94.3917C118.885 93.9825 119.778 93.3121 120.783 92.8665C121.026 92.7522 121.25 93.1069 120.99 93.2186Z" fill="#845EC2"/>
<path d="M122.107 91.1133C121.008 90.9639 119.741 91.8019 118.848 92.3423C117.916 92.9192 117.005 93.5531 116.223 94.3353C116.018 94.521 115.718 94.2222 115.906 94.0183C116.95 93.0127 118.195 92.1552 119.483 91.4849C120.32 91.0756 121.271 90.5728 122.22 90.7027C122.498 90.7404 122.387 91.1497 122.107 91.1133Z" fill="#845EC2"/>
<path d="M88.8782 76.0836C86.9034 76.437 84.4843 75.2079 82.7498 74.3518C82.5082 74.2401 82.7316 73.8672 82.9733 73.9984C84.5375 74.7623 86.9604 75.9914 88.765 75.6744C89.0275 75.6172 89.1575 76.0277 88.8782 76.0836Z" fill="#845EC2"/>
<path d="M83.7762 71.9861C85.5431 72.3213 87.1826 73.1034 88.8781 73.6815C89.1406 73.7751 89.0276 74.1843 88.7664 74.0908C87.071 73.5139 85.4329 72.7306 83.6631 72.3953C83.3851 72.3395 83.4969 71.9303 83.7762 71.9861Z" fill="#845EC2"/>
<path d="M84.9103 69.7145C86.4213 70.329 87.8179 71.167 89.2144 72.0049C89.456 72.1543 89.2326 72.5077 89.0091 72.3778C87.6307 71.558 86.2717 70.7383 84.7999 70.1238C84.5374 70.012 84.6492 69.6028 84.9103 69.7145Z" fill="#845EC2"/>
<path d="M88.0234 50.697C89.2173 50.9764 90.4256 50.9764 91.6001 50.697C91.8794 50.6412 91.9911 51.0504 91.7131 51.1063C90.4646 51.4038 89.1797 51.4038 87.9129 51.1063C87.6505 51.0504 87.7623 50.6412 88.0234 50.697Z" fill="#845EC2"/>
<path d="M87.9103 48.7048C89.5681 48.2021 91.0946 48.4073 92.3783 49.6169C92.5836 49.8026 92.2666 50.1196 92.0821 49.9144C90.9063 48.8153 89.5305 48.6477 88.0195 49.1323C87.761 49.2076 87.6492 48.7971 87.9103 48.7048Z" fill="#845EC2"/>
<path d="M74.5003 0.000464354C33.3588 0.000464354 0 33.3592 0 74.5005C0 96.6266 9.64778 116.52 24.9948 130.153C25.2742 129.389 25.5717 128.644 25.851 127.938C28.5884 120.84 29.725 113.671 34.8103 107.692C38.517 103.334 40.6955 97.8186 42.8184 92.5883C45.7611 85.3804 48.2387 78.0049 51.7957 71.0764C55.2789 64.2414 59.4506 57.7781 62.8776 50.8872C66.0996 44.4237 66.5285 37.868 67.4963 30.8281C68.5395 23.267 69.8063 15.0158 72.879 7.97556C73.6987 6.09436 75.0772 4.84716 77.0323 4.08326C80.2166 2.83476 81.6497 7.24935 82.1915 9.09272C83.2906 12.8929 82.2655 16.9152 81.4094 20.6399C79.7893 27.6984 80.2544 34.888 79.1553 42.0217C79.1176 42.2075 79.3606 42.4128 79.5087 42.227L79.5269 42.2088C79.5269 45.0956 79.4879 48.0005 78.9682 50.8508C78.9292 51.0002 79.0617 51.0925 79.1709 51.1119C77.0311 55.0797 74.8316 59.6242 78.5564 63.0878C78.2589 64.5221 77.9795 65.9369 77.7742 67.3909C77.4222 69.8684 77.7742 72.2147 77.1974 74.6922C77.1233 75.0274 77.009 75.3626 76.8999 75.6796C71.5731 75.9212 66.5999 78.0259 61.3473 75.9589C61.0862 75.8654 60.9939 76.2759 61.2356 76.3682C66.5065 78.4546 71.3483 76.4058 76.7323 76.1265C75.5968 78.7716 73.4167 80.9128 73.5662 84.0228C71.2757 86.4055 68.1835 87.2617 64.98 87.5786C64.7189 87.6175 64.7007 88.0436 64.98 88.0073C68.1838 87.6903 71.276 86.8342 73.6221 84.5437V84.6386C74.1807 88.4387 76.6764 89.4235 79.3775 88.8661C75.7826 93.8756 73.8456 99.5948 72.7284 105.628C72.6725 105.889 73.0818 106.001 73.1376 105.74C74.2367 99.7258 76.1738 94.0262 79.7868 89.0337C79.8608 88.9402 79.805 88.831 79.7309 88.7726C80.8508 88.4932 81.985 87.9723 83.0296 87.2616C86.7918 90.5213 91.8212 91.1356 95.3224 87.2824C96.0305 89.4611 97.1309 91.5475 98.4703 93.3352C94.1117 98.0849 95.5836 105.944 98.282 111.178C98.4119 111.42 98.7873 111.196 98.6548 110.954C96.0487 105.907 94.5779 98.2692 98.7484 93.6701C100.166 95.4578 101.84 96.9103 103.61 97.7676C103.851 97.8963 104.075 97.526 103.833 97.4143C96.8865 94.0807 91.8015 81.6382 97.2217 75.4374C99.3264 73.0158 101.393 72.6442 103.368 73.221C106.977 75.0633 108.218 76.6391 110.371 77.7655C113.146 79.8325 116.295 81.3784 119.422 82.775C119.831 83.6675 120.63 84.5068 121.136 85.3643C124.208 90.561 122.328 97.1908 119.44 101.866C116.609 106.448 113.535 111.421 109.14 114.624C104.821 117.753 98.5051 118.592 93.5721 120.509C89.0445 122.258 84.5013 123.601 79.9202 125.203C76.9217 126.265 74.5935 128.185 72.8617 130.812C71.0181 133.624 70.3841 137.181 69.5461 140.385C68.7459 143.477 67.6649 146.159 65.9136 148.505C68.7263 148.832 71.5949 149 74.4998 149C115.641 149 149 115.641 149 74.5C149 33.3587 115.641 0 74.4998 0L74.5003 0.000464354ZM78.6357 88.6921C78.6565 88.6921 78.6916 88.7102 78.7097 88.7102C77.2196 88.8233 75.7489 88.3582 74.7419 86.9226C74.1651 86.1405 73.9598 85.1739 73.9598 84.1852C73.978 84.1293 73.978 84.0916 73.9598 84.0358C73.9975 82.4716 74.5367 80.8138 75.0589 79.5847C75.5994 78.3349 76.3997 77.2566 77.035 76.1002C77.0727 76.1002 77.1285 76.1002 77.1844 76.082C77.4455 76.082 77.4455 75.7468 77.239 75.691C77.5923 74.9647 77.8716 74.1826 77.947 73.3252C78.2445 69.8799 78.5083 66.5826 79.0474 63.2487C79.102 63.1928 79.102 63.1188 79.0851 63.0434C79.2527 62.0379 79.4385 61.0505 79.6619 60.0449C79.7178 59.7656 79.3099 59.6539 79.2527 59.9332C79.05 60.827 78.8616 61.7027 78.6589 62.5965C74.5222 58.4248 79.011 52.6877 81.0599 48.4601C81.1898 48.2185 80.8182 47.995 80.6896 48.2367C80.3362 49.0006 79.8867 49.8009 79.4411 50.6389C79.9439 47.6962 79.9607 44.6978 79.9607 41.7175C83.6322 37.6759 89.8137 37.6938 92.4043 43.0401C92.442 43.1141 92.5537 43.1518 92.6277 43.1336C93.1474 44.829 94.1712 45.7969 95.4015 47.1014C98.9236 50.7898 96.333 57.5494 95.5145 61.7965C94.8818 65.0185 94.6947 68.3522 93.9295 71.556C93.1656 74.7962 90.8011 77.4232 88.8472 80.0124C87.487 81.8196 86.2216 83.6254 84.6938 85.2274C82.6476 87.5062 81.0979 87.615 78.6357 88.6921ZM119.518 80.4229C119.145 81.0556 119.092 81.6519 119.238 82.2105C116.484 80.9439 113.839 79.5654 111.304 77.8909C111.063 77.7233 110.82 77.5544 110.578 77.3855C110.539 77.292 110.465 77.2179 110.373 77.2179C108.529 75.8577 106.911 74.2376 104.974 73.0087C101.789 70.978 98.0268 73.288 96.1261 76.0448C94.1149 78.9875 94.0396 82.9903 95.1738 86.8098C93.6096 88.6169 91.7285 89.4341 89.7911 89.5082C87.3824 89.551 81.6387 88.6611 86.8485 83.5501C88.2087 81.8365 89.4001 79.9735 90.6876 78.3145C92.7922 75.5772 94.4122 72.7643 94.823 69.2814C95.4921 63.8053 96.8159 58.4606 97.5032 53.0028C98.1177 48.0855 94.1697 47.0422 92.9963 42.9081C92.9963 42.8704 92.9781 42.8522 92.9586 42.834C95.5842 40.2084 100.483 45.3674 102.662 46.6146H102.68C105.623 49.986 108.922 53.0222 111.36 56.8028C115.067 62.5386 110.317 69.058 107.933 74.3482C107.82 74.5898 108.194 74.8133 108.306 74.5535C110.411 69.8789 114.061 64.7201 112.98 59.3558C112.01 54.5878 106.928 50.5462 103.612 47.0071C104.636 47.3423 105.81 47.3981 106.834 47.5657C110.13 48.1062 111.768 50.676 113.649 53.0418C116.722 56.9158 121.081 59.374 124.508 62.9131C130.339 68.9323 122.48 75.3007 119.518 80.4232L119.518 80.4229ZM119.312 67.2364C121.175 68.6889 123.41 69.2475 125.72 69.5645C125.981 69.6022 125.981 69.1734 125.72 69.1358C123.522 68.8383 121.381 68.316 119.611 66.9376C119.406 66.7713 119.108 67.0688 119.312 67.2364ZM120.543 65.2993C122.033 65.6163 123.504 66.0814 124.753 66.9753C124.976 67.1429 125.179 66.77 124.976 66.6024C123.692 65.7086 122.182 65.2058 120.656 64.8888C120.393 64.8342 120.282 65.2434 120.543 65.2993ZM108.511 61.2198C106.536 60.1025 104.208 58.9098 103.202 56.7494C103.073 56.5078 102.718 56.7313 102.83 56.9729C103.873 59.1893 106.257 60.4182 108.286 61.5916C108.529 61.7241 108.753 61.351 108.511 61.2198ZM104.32 57.3275C105.493 58.1836 106.927 59.0034 108.399 59.0593C108.677 59.0775 108.677 58.65 108.399 58.6305C107.003 58.5747 105.642 57.7744 104.543 56.9546C104.32 56.8065 104.096 57.1794 104.32 57.3275ZM104.078 54.5148C105.233 54.8123 106.257 55.3345 107.114 56.1725C107.319 56.3583 107.62 56.0608 107.412 55.8555C106.519 54.9994 105.419 54.4212 104.208 54.1043C103.929 54.0315 103.817 54.4407 104.078 54.5148Z" fill="#845EC2"/>
</svg>
